Tools to facilitate sampling Twitter data • socialsampler
…
Installation

You can install the development version of socialsampler from GitHub with:

# install.packages("devtools")
devtools::install_github("alexpghayes/socialsampler")

Sampling Twitter data with socialsampler

socialsampler provides (essentially) drop-in replacements for several rtweet functions. These drop-in functions follow the same naming conventions as rtweet functions, but with a safe_* prefix. For example:

library(socialsampler)

safe_get_friends("alexpghayes")
#> # A tibble: 1,244 x 2
#>    from        to                 
#>    <chr>       <chr>              
#>  1 alexpghayes 294710260          
#>  2 alexpghayes 24096463           
#>  3 alexpghayes 14636374           
#>  4 alexpghayes 1096256122137137153
#>  5 alexpghayes 1308811981         
#>  6 alexpghayes 1897939710         
#>  7 alexpghayes 780934633          
#>  8 alexpghayes 20406724           
#>  9 alexpghayes 1152655010871820288
#> 10 alexpghayes 302667955          
#> # ... with 1,234 more rows
…
