…
## Sampling Twitter data with `socialsampler`

`socialsampler` provides (essentially) drop-in replacements for several
`rtweet` functions. These drop-in functions follow the same naming
conventions as `rtweet` functions, but with a `safe_*` prefix. For
example:

``` r
library(socialsampler)

safe_get_friends("alexpghayes")
#> # A tibble: 1,009 x 2
#>    from        to        
#>    <chr>       <chr>     
#>  1 alexpghayes 32400855  
#>  2 alexpghayes 20855386  
#>  3 alexpghayes 14204987  
#>  4 alexpghayes 15807813  
#>  5 alexpghayes 1352420582
#>  6 alexpghayes 2176641060
#>  7 alexpghayes 1123691436
#>  8 alexpghayes 31638712  
#>  9 alexpghayes 235957352 
#> 10 alexpghayes 78923022  
#> # … with 999 more rows
```
…
